module aesgit.devintermedia.net/aescore/ScreenshotTaker

require (
	github.com/beorn7/perks v0.0.0-20180321164747-3a771d992973 // indirect
	github.com/davecgh/go-spew v1.1.1 // indirect
	github.com/gin-contrib/sse v0.0.0-20170109093832-22d885f9ecc7 // indirect
	github.com/gin-gonic/gin v1.3.0
	github.com/gogo/protobuf v1.1.1 // indirect
	github.com/golang/protobuf v1.2.0 // indirect
	github.com/google/uuid v1.0.0
	github.com/json-iterator/go v1.1.5 // indirect
	github.com/mattn/go-isatty v0.0.4 // indirect
	github.com/matttproud/golang_protobuf_extensions v1.0.1 // indirect
	github.com/modern-go/concurrent v0.0.0-20180306012644-bacd9c7ef1dd // indirect
	github.com/modern-go/reflect2 v1.0.1 // indirect
	github.com/pmezard/go-difflib v1.0.0 // indirect
	github.com/prometheus/client_golang v0.9.0
	github.com/prometheus/client_model v0.0.0-20180712105110-5c3871d89910 // indirect
	github.com/prometheus/common v0.0.0-20181020173914-7e9e6cabbd39 // indirect
	github.com/prometheus/procfs v0.0.0-20181005140218-185b4288413d // indirect
	github.com/stretchr/testify v1.2.2 // indirect
	github.com/ugorji/go/codec v0.0.0-20181022190402-e5e69e061d4f // indirect
	golang.org/x/net v0.0.0-20181023162649-9b4f9f5ad519 // indirect
	golang.org/x/sync v0.0.0-20180314180146-1d60e4601c6f // indirect
	golang.org/x/sys v0.0.0-20181026203630-95b1ffbd15a5 // indirect
	gopkg.in/go-playground/assert.v1 v1.2.1 // indirect
	gopkg.in/go-playground/validator.v8 v8.18.2 // indirect
	gopkg.in/yaml.v2 v2.2.1 // indirect
)
